{
  "file_generated_by": "FlutterFire CLI",
  "purpose": "FirebaseAppID & ProjectID for this Firebase app in this directory",
  "GOOGLE_APP_ID": "1:444961248999:ios:028f2deb0b6e4f34c9b442",
  "FIREBASE_PROJECT_ID": "attendance-1b63d",
  "GCM_SENDER_ID": "444961248999"
}